{"data":[{"time":"2023-07-27 00:00","locationUid":"7rybcbkr6slj7fhak1","dir":"E","count":0,"vehicle_type":"small_vehicle","pole_id":"Albuquerq_04_ai","node_id":"947bbe4010e6"},{"time":"2023-07-27 00:00","locationUid":"7rybcbkr6slj7fhak1","dir":"W","count":0,"vehicle_type":"small_vehicle","pole_id":"Albuquerq_04_ai","node_id":"947bbe4010e6"},{"time":"2023-07-27 01:00","locationUid":"7rybcbkr6slj7fhak1","dir":"E","count":0,"vehicle_type":"small_vehicle","pole_id":"Albuquerq_04_ai","node_id":"947bbe4010e6"},{"time":"2023-07-27 01:00","locationUid":"7rybcbkr6slj7fhak1","dir":"W","count":0,"vehicle_type":"small_vehicle","pole_id":"Albuquerq_04_ai","node_id":"947bbe4010e6"},{"time":"2023-07-27 02:00","locationUid":"7rybcbkr6slj7fhak1","dir":"E","count":1,"vehicle_type":"small_vehicle","pole_id":"Albuquerq_04_ai","node_id":"947bbe4010e6"},{"time":"2023-07-27 02:00","locationUid":"7rybcbkr6slj7fhak1","dir":"W","count":1,"vehicle_type":"small_vehicle","pole_id":"Albuquerq_04_ai","node_id":"947bbe4010e6"},{"time":"2023-07-27 03:00","locationUid":"7rybcbkr6slj7fhak1","dir":"E","count":0,"vehicle_type":"small_vehicle","pole_id":"Albuquerq_04_ai","node_id":"947bbe4010e6"},{"time":"2023-07-27 03:00","locationUid":"7rybcbkr6slj7fhak1","dir":"W","count":0,"vehicle_type":"small_vehicle","pole_id":"Albuquerq_04_ai","node_id":"947bbe4010e6"},{"time":"2023-07-27 04:00","locationUid":"7rybcbkr6slj7fhak1","dir":"E","count":1,"vehicle_type":"small_vehicle","pole_id":"Albuquerq_04_ai","node_id":"947bbe4010e6"},{"time":"2023-07-27 04:00","locationUid":"7rybcbkr6slj7fhak1","dir":"W","count":2,"vehicle_type":"small_vehicle","pole_id":"Albuquerq_04_ai","node_id":"947bbe4010e6"}],"status":"success","message":"Operation success","code":"200","version":"2","links":{"first":"http://api.ubicquia.com/api/v2/traffic-mobility/list/vehicle?page=1&per_page=10","last":"http://api.ubicquia.com/api/v2/traffic-mobility/list/vehicle?page=3&per_page=10","prev":"","next":"http://api.ubicquia.com/api/v2/traffic-mobility/list/vehicle?page=2&per_page=10"},"meta":{"current_page":1,"from":0,"last_page":3,"path":"http://api.ubicquia.com/api/v2/traffic-mobility/list/vehicle","per_page":10,"to":10,"total":22}}